EESchema Schematic File Version 4
EELAYER 30 0
EELAYER END
$Descr A4 11693 8268
encoding utf-8
Sheet 1 1
Title ""
Date ""
Rev ""
Comp ""
Comment1 ""
Comment2 ""
Comment3 ""
Comment4 ""
$EndDescr
$Comp
L Device:LED D1
U 1 1 5ED877A9
P 3950 1700
F 0 "D1" H 3943 1917 50  0000 C CNN
F 1 "LED" H 3943 1826 50  0000 C CNN
F 2 "LED_SMD:LED_0805_2012Metric_Pad1.15x1.40mm_HandSolder" H 3950 1700 50  0001 C CNN
F 3 "~" H 3950 1700 50  0001 C CNN
	1    3950 1700
	0    -1   -1   0   
$EndComp
$Comp
L Connector_Generic:Conn_02x01 J1
U 1 1 5ED87B2F
P 3350 1700
F 0 "J1" H 3400 1917 50  0000 C CNN
F 1 "Conn_02x01" H 3400 1826 50  0000 C CNN
F 2 "Connector_PinHeader_2.54mm:PinHeader_2x01_P2.54mm_Vertical" H 3350 1700 50  0001 C CNN
F 3 "~" H 3350 1700 50  0001 C CNN
	1    3350 1700
	0    1    1    0   
$EndComp
$Comp
L Device:R R1
U 1 1 5ED87E84
P 3950 2100
F 0 "R1" H 4020 2146 50  0000 L CNN
F 1 "R" H 4020 2055 50  0000 L CNN
F 2 "Resistor_SMD:R_0805_2012Metric_Pad1.15x1.40mm_HandSolder" V 3880 2100 50  0001 C CNN
F 3 "~" H 3950 2100 50  0001 C CNN
	1    3950 2100
	-1   0    0    1   
$EndComp
$Comp
L Interface_USB:FT2232HL U1
U 1 1 5ED89140
P 6250 3350
F 0 "U1" H 6250 5731 50  0000 C CNN
F 1 "FT2232HL" H 6250 5640 50  0000 C CNN
F 2 "Package_QFP:LQFP-64_10x10mm_P0.5mm" H 6250 3350 50  0001 C CNN
F 3 "https://www.ftdichip.com/Support/Documents/DataSheets/ICs/DS_FT2232H.pdf" H 6250 3350 50  0001 C CNN
	1    6250 3350
	1    0    0    -1  
$EndComp
$Comp
L Regulator_Linear:LM1117-3.3 U2
U 1 1 5EDE7150
P 4500 1450
F 0 "U2" H 4500 1692 50  0000 C CNN
F 1 "LM1117-3.3" H 4500 1601 50  0000 C CNN
F 2 "Package_TO_SOT_SMD:SOT-23_Handsoldering" H 4500 1450 50  0001 C CNN
F 3 "http://www.ti.com/lit/ds/symlink/lm1117.pdf" H 4500 1450 50  0001 C CNN
	1    4500 1450
	1    0    0    -1  
$EndComp
Wire Wire Line
	3350 1500 3350 1450
Wire Wire Line
	3350 1450 3950 1450
Wire Wire Line
	3950 1550 3950 1450
Connection ~ 3950 1450
Wire Wire Line
	3950 1450 4200 1450
Wire Wire Line
	3950 1850 3950 1950
Wire Wire Line
	3350 2000 3350 2300
Wire Wire Line
	3950 2250 3950 2300
Wire Wire Line
	3950 2300 4500 2300
Connection ~ 3950 2300
Wire Wire Line
	3350 2300 3950 2300
Wire Wire Line
	4500 1750 4500 2300
Wire Wire Line
	5050 1450 4800 1450
$Comp
L power:GND #PWR0101
U 1 1 5EE0ACC3
P 4500 2350
F 0 "#PWR0101" H 4500 2100 50  0001 C CNN
F 1 "GND" H 4505 2177 50  0000 C CNN
F 2 "" H 4500 2350 50  0001 C CNN
F 3 "" H 4500 2350 50  0001 C CNN
	1    4500 2350
	1    0    0    -1  
$EndComp
Wire Wire Line
	4500 2350 4500 2300
Connection ~ 4500 2300
$Comp
L power:GND #PWR0102
U 1 1 5EE0D007
P 6150 5700
F 0 "#PWR0102" H 6150 5450 50  0001 C CNN
F 1 "GND" H 6155 5527 50  0000 C CNN
F 2 "" H 6150 5700 50  0001 C CNN
F 3 "" H 6150 5700 50  0001 C CNN
	1    6150 5700
	1    0    0    -1  
$EndComp
Wire Wire Line
	6150 5700 6150 5650
Wire Wire Line
	6150 5650 6050 5650
Wire Wire Line
	5650 5650 5650 5550
Wire Wire Line
	5850 5550 5850 5650
Connection ~ 5850 5650
Wire Wire Line
	5850 5650 5650 5650
Wire Wire Line
	5950 5550 5950 5650
Connection ~ 5950 5650
Wire Wire Line
	5950 5650 5850 5650
Wire Wire Line
	6050 5550 6050 5650
Connection ~ 6050 5650
Wire Wire Line
	6050 5650 5950 5650
Wire Wire Line
	6150 5550 6150 5650
Connection ~ 6150 5650
Wire Wire Line
	6250 5550 6250 5650
Wire Wire Line
	6250 5650 6150 5650
Wire Wire Line
	6350 5550 6350 5650
Wire Wire Line
	6350 5650 6250 5650
Connection ~ 6250 5650
Wire Wire Line
	6450 5550 6450 5650
Wire Wire Line
	6450 5650 6350 5650
Connection ~ 6350 5650
Wire Wire Line
	6550 5550 6550 5650
Wire Wire Line
	6550 5650 6450 5650
Connection ~ 6450 5650
$Comp
L MCU_Cypress:CY7C68013A-56PVX U3
U 1 1 5EE9BFA7
P 9200 3250
F 0 "U3" H 9200 5431 50  0000 C CNN
F 1 "CY7C68013A-56PVX" H 9200 5340 50  0000 C CNN
F 2 "Package_SO:SSOP-56_7.5x18.5mm_P0.635mm" H 9200 950 50  0001 C CNN
F 3 "http://www.cypress.com/file/138911/download" H 9200 3450 50  0001 C CNN
	1    9200 3250
	1    0    0    -1  
$EndComp
$Comp
L power:GND #PWR0103
U 1 1 5EE9F35E
P 9200 5400
F 0 "#PWR0103" H 9200 5150 50  0001 C CNN
F 1 "GND" H 9205 5227 50  0000 C CNN
F 2 "" H 9200 5400 50  0001 C CNN
F 3 "" H 9200 5400 50  0001 C CNN
	1    9200 5400
	1    0    0    -1  
$EndComp
Wire Wire Line
	9200 5400 9200 5350
Wire Wire Line
	9200 5350 9000 5350
Wire Wire Line
	9000 5350 9000 5250
Wire Wire Line
	9200 5250 9200 5350
Connection ~ 9200 5350
$Comp
L Connector:USB_B_Micro J2
U 1 1 5EEA3E07
P 7850 3550
F 0 "J2" H 7907 4017 50  0000 C CNN
F 1 "USB_B_Micro" H 7907 3926 50  0000 C CNN
F 2 "" H 8000 3500 50  0001 C CNN
F 3 "~" H 8000 3500 50  0001 C CNN
	1    7850 3550
	1    0    0    -1  
$EndComp
Wire Wire Line
	8150 3550 8500 3550
Wire Wire Line
	8500 3650 8150 3650
$Comp
L power:GND #PWR0104
U 1 1 5EEA7AF0
P 7850 4050
F 0 "#PWR0104" H 7850 3800 50  0001 C CNN
F 1 "GND" H 7855 3877 50  0000 C CNN
F 2 "" H 7850 4050 50  0001 C CNN
F 3 "" H 7850 4050 50  0001 C CNN
	1    7850 4050
	1    0    0    -1  
$EndComp
Wire Wire Line
	7750 3950 7750 4000
Wire Wire Line
	7750 4000 7850 4000
Wire Wire Line
	7850 4000 7850 4050
Wire Wire Line
	7850 3950 7850 4000
Connection ~ 7850 4000
$EndSCHEMATC
